{
  "server": {
    "port": 4000
  },
  "csv_import":{
    "type":"dir",
    "move_files": true,
    "dir":"./imports",
    "dir_output":"./imports/done"
  },
  "database": [{
    "type": "mysql",
    "host": "192.168.10.21",
    "port": 3306,
    "database": "mailtrix_mailmerge",
    "user": "root",
    "pass": "cae]K5ei"
  }, {
    "type": "mysql",
    "host": "192.168.0.247",
    "port": 3306,
    "database": "drc-krp",
    "user": "nick",
    "pass": "4krex9w3k4@$%RS"
  }]
}
