id,OfficeMailOrderNummer,AantalPaginas,AanleverDatumTijd
1,20774912,344,2018-05-04 11:55:01
2,20938752,344,2018-05-07 12:07:42
3,21233664,413,2018-05-09 15:29:20
4,21233665,413,2018-05-09 16:00:55
5,21397504,332,2018-05-14 13:48:28
6,21626880,330,2018-05-16 13:10:00
7,21790720,420,2018-05-16 15:21:39
8,21954560,108,2018-05-17 11:49:00
9,22446080,418,2018-05-28 14:35:41
10,23035904,25,2018-06-05 15:30:04
11,23199744,64,2018-06-06 08:07:27
12,23199745,12,2018-06-06 08:29:15
13,23199746,80,2018-06-06 08:37:04
14,23199747,12,2018-06-06 08:43:29
15,23199748,6,2018-06-06 08:46:13
16,23527424,6,2018-06-12 11:52:23
17,23527425,39,2018-06-12 12:00:37
18,23691264,23,2018-06-12 15:58:04
19,23691265,64,2018-06-12 16:03:14
20,23691266,8,2018-06-12 16:12:28
21,23691267,6,2018-06-12 16:19:48
22,23855104,6,2018-06-13 11:19:46
23,23855105,23,2018-06-13 11:56:58
24,24150016,1,2018-06-20 09:49:44
